{
    "packageDirectories": [
        {
            "path": "force-app",
            "default": true,
            "package": "GIFter",
            "versionName": "ver 0.1",
            "versionNumber": "0.1.0.NEXT"
        }
    ],
    "name": "MyFinalProject",
    "namespace": "",
    "sfdcLoginUrl": "https://login.salesforce.com",
    "sourceApiVersion": "52.0",
    "packageAliases": {
        "GIFter": "0Ho0K000000003USAQ",
        "GIFter@0.1.0-1": "04t0K000001E3vZQAS"
    }
}